…
```r
viol <- viol %>% mutate( Civ_Crim_bin=factor( ifelse( grepl( "civil and criminal", `Civil/Criminal` )=="TRUE", "both", 
                                              ifelse( grepl( "civil", `Civil/Criminal` )=="TRUE", "civil", "criminal" ))))

# str( viol )
# summary( viol$Year )
viol
```

```
## # A tibble: 62,560 x 28
##                                                               Company
##                                                                 <chr>
##  1                                                 1 800 PACK RAT LLC
##  2 1) Smithfield Foods, Inc. and  2) Smithfield Packing Company, Inc.
##  3                                             1366 TECHNOLOGIES INC.
##  4                                             1366 TECHNOLOGIES, INC
##  5                                                    180 Connect Inc
##  6                                                  180 Connect, Inc.
##  7                                             1st Financial Bank USA
##  8                                             1ST FINANCIAL BANK USA
##  9                           20TH CENTURY FOX STUDIOS (THREE STOOGES)
## 10                                           21ST CENTURY MEDIA, INC.
## # ... with 62,550 more rows, and 27 more variables: Parent_Company <chr>,
## #   Facility_State <fctr>, City <chr>, Address <chr>, Zip <fctr>,
## #   Description <chr>, Industry_in_Record <chr>, Year <int>,
## #   Record_Date <chr>, Penalty_Amount <dbl>,
## #   Subtraction_From_Penalty <dbl>,
## #   Penalty_Amount_Adjusted_For_Eliminating_Multiple_Counting <chr>,
## #   Agency <fctr>, Primary_Offense <fctr>, Secondary_Offense <fctr>,
## #   Source_of_Data <chr>, Notes <chr>, HQ_State_of_Parent <fctr>,
## #   HQ_Country_of_Parent <fctr>, Ownership_Structure <fctr>,
…
